###PARA HACER UN GRÁFO DE COLUMNNAS APILADAS DESDE UN EXCEL CON EL SIGUENTE FORMATO:
 
# Install and load required packages
install.packages(c("readxl", "ggplot2", "tidyr"))
library(readxl)
library(ggplot2)
library(tidyr)

# Visualizar la tabl ay su formato correcto
read_excel("ruta/a/tu/archivo.xlsx", sheet = "Sheet1")

# A tibble: 106 × 6
   Taxa                  Cue     Nat   PTAR PUrrutia Tezhuilo
   <chr>               <dbl>   <dbl>  <dbl>    <dbl>    <dbl>
 1 Synechococcus      3.15    0.255  2.50     0       27.9
 2 Arcobacter         0.0160  0.0190 0       32.9      0
 3 Guyparkeria       14.1     2.80   6.89     0        0.0610
 4 Mycolicibacterium  2.38    2.53   3.86     0       10.2
 5 Flavobacterium     2.39    7.80   4.44     0.0560   3.78
 6 Comamonas          0.281  15.6    0.401    0.966    0.225
 7 Bacteroides        0       0      0.0390  14.3      0
 8 Mycobacterium      0.940   2.10   5.91     0        5.17
 9 Clostridium        4.88    2.14   2.52     0.515    3.40
10 Verrucomicrobium   1.15    4.73   2.91     0.0320   2.27
# ℹ 96 more rows
# ℹ Use `print(n = ...)` to see more rows
…
